{
  "build": "0",
  "build_number": 0,
  "channel": "https://repo.anaconda.com/pkgs/main/osx-64",
  "constrains": [],
  "depends": [],
  "extracted_package_dir": "/Users/mattia/anaconda3/pkgs/ca-certificates-2020.7.22-0",
  "features": "",
  "files": [
    "ssl/cacert.pem",
    "ssl/cert.pem"
  ],
  "fn": "ca-certificates-2020.7.22-0.conda",
  "legacy_bz2_md5": "797aff595935bd1514457920cc4c06a5",
  "license": "MPL 2.0",
  "link": {
    "source": "/Users/mattia/anaconda3/pkgs/ca-certificates-2020.7.22-0",
    "type": 1
  },
  "md5": "cbfdee964f0219398a45f7db3cab8ba4",
  "name": "ca-certificates",
  "package_tarball_full_path": "/Users/mattia/anaconda3/pkgs/ca-certificates-2020.7.22-0.conda",
  "paths_data": {
    "paths": [
      {
        "_path": "ssl/cacert.pem",
        "path_type": "hardlink",
        "sha256": "2782f0f8e89c786f40240fc1916677be660fb8d8e25dede50c9f6f7b0c2c2178",
        "sha256_in_prefix": "2782f0f8e89c786f40240fc1916677be660fb8d8e25dede50c9f6f7b0c2c2178",
        "size_in_bytes": 222172
      },
      {
        "_path": "ssl/cert.pem",
        "path_type": "softlink",
        "sha256": "2782f0f8e89c786f40240fc1916677be660fb8d8e25dede50c9f6f7b0c2c2178",
        "size_in_bytes": 222172
      }
    ],
    "paths_version": 1
  },
  "requested_spec": "None",
  "sha256": "44f8a340874228f407c86e92eabd3cba5a1ea70ec1d70e5f9615dc5c1e46fba6",
  "size": 127333,
  "subdir": "osx-64",
  "timestamp": 1598370589630,
  "track_features": "",
  "url": "https://repo.anaconda.com/pkgs/main/osx-64/ca-certificates-2020.7.22-0.conda",
  "version": "2020.7.22"
}