{
  "build": "ha12b0ac_1",
  "build_number": 1,
  "channel": "https://repo.anaconda.com/pkgs/main/osx-64",
  "constrains": [],
  "depends": [
    "openssl >=1.1.1d,<1.1.2a"
  ],
  "extracted_package_dir": "/Users/mattia/anaconda3/pkgs/libssh2-1.9.0-ha12b0ac_1",
  "features": "",
  "files": [
    "include/libssh2.h",
    "include/libssh2_publickey.h",
    "include/libssh2_sftp.h",
    "lib/cmake/libssh2/Libssh2Config-noconfig.cmake",
    "lib/cmake/libssh2/Libssh2Config.cmake",
    "lib/cmake/libssh2/Libssh2ConfigVersion.cmake",
    "lib/libssh2.1.0.1.dylib",
    "lib/libssh2.1.dylib",
    "lib/libssh2.a",
    "lib/libssh2.dylib",
    "lib/pkgconfig/libssh2.pc",
    "share/doc/libssh2/AUTHORS",
    "share/doc/libssh2/COPYING",
    "share/doc/libssh2/HACKING",
    "share/doc/libssh2/NEWS",
    "share/doc/libssh2/README",
    "share/doc/libssh2/RELEASE-NOTES",
    "share/man/man3/libssh2_agent_connect.3",
    "share/man/man3/libssh2_agent_disconnect.3",
    "share/man/man3/libssh2_agent_free.3",
    "share/man/man3/libssh2_agent_get_identity.3",
    "share/man/man3/libssh2_agent_get_identity_path.3",
    "share/man/man3/libssh2_agent_init.3",
    "share/man/man3/libssh2_agent_list_identities.3",
    "share/man/man3/libssh2_agent_set_identity_path.3",
    "share/man/man3/libssh2_agent_userauth.3",
    "share/man/man3/libssh2_banner_set.3",
    "share/man/man3/libssh2_base64_decode.3",
    "share/man/man3/libssh2_channel_close.3",
    "share/man/man3/libssh2_channel_direct_tcpip.3",
    "share/man/man3/libssh2_channel_direct_tcpip_ex.3",
    "share/man/man3/libssh2_channel_eof.3",
    "share/man/man3/libssh2_channel_exec.3",
    "share/man/man3/libssh2_channel_flush.3",
    "share/man/man3/libssh2_channel_flush_ex.3",
    "share/man/man3/libssh2_channel_flush_stderr.3",
    "share/man/man3/libssh2_channel_forward_accept.3",
    "share/man/man3/libssh2_channel_forward_cancel.3",
    "share/man/man3/libssh2_channel_forward_listen.3",
    "share/man/man3/libssh2_channel_forward_listen_ex.3",
    "share/man/man3/libssh2_channel_free.3",
    "share/man/man3/libssh2_channel_get_exit_signal.3",
    "share/man/man3/libssh2_channel_get_exit_status.3",
    "share/man/man3/libssh2_channel_handle_extended_data.3",
    "share/man/man3/libssh2_channel_handle_extended_data2.3",
    "share/man/man3/libssh2_channel_ignore_extended_data.3",
    "share/man/man3/libssh2_channel_open_ex.3",
    "share/man/man3/libssh2_channel_open_session.3",
    "share/man/man3/libssh2_channel_process_startup.3",
    "share/man/man3/libssh2_channel_read.3",
    "share/man/man3/libssh2_channel_read_ex.3",
    "share/man/man3/libssh2_channel_read_stderr.3",
    "share/man/man3/libssh2_channel_receive_window_adjust.3",
    "share/man/man3/libssh2_channel_receive_window_adjust2.3",
    "share/man/man3/libssh2_channel_request_pty.3",
    "share/man/man3/libssh2_channel_request_pty_ex.3",
    "share/man/man3/libssh2_channel_request_pty_size.3",
    "share/man/man3/libssh2_channel_request_pty_size_ex.3",
    "share/man/man3/libssh2_channel_send_eof.3",
    "share/man/man3/libssh2_channel_set_blocking.3",
    "share/man/man3/libssh2_channel_setenv.3",
    "share/man/man3/libssh2_channel_setenv_ex.3",
    "share/man/man3/libssh2_channel_shell.3",
    "share/man/man3/libssh2_channel_subsystem.3",
    "share/man/man3/libssh2_channel_wait_closed.3",
    "share/man/man3/libssh2_channel_wait_eof.3",
    "share/man/man3/libssh2_channel_window_read.3",
    "share/man/man3/libssh2_channel_window_read_ex.3",
    "share/man/man3/libssh2_channel_window_write.3",
    "share/man/man3/libssh2_channel_window_write_ex.3",
    "share/man/man3/libssh2_channel_write.3",
    "share/man/man3/libssh2_channel_write_ex.3",
    "share/man/man3/libssh2_channel_write_stderr.3",
    "share/man/man3/libssh2_channel_x11_req.3",
    "share/man/man3/libssh2_channel_x11_req_ex.3",
    "share/man/man3/libssh2_exit.3",
    "share/man/man3/libssh2_free.3",
    "share/man/man3/libssh2_hostkey_hash.3",
    "share/man/man3/libssh2_init.3",
    "share/man/man3/libssh2_keepalive_config.3",
    "share/man/man3/libssh2_keepalive_send.3",
    "share/man/man3/libssh2_knownhost_add.3",
    "share/man/man3/libssh2_knownhost_addc.3",
    "share/man/man3/libssh2_knownhost_check.3",
    "share/man/man3/libssh2_knownhost_checkp.3",
    "share/man/man3/libssh2_knownhost_del.3",
    "share/man/man3/libssh2_knownhost_free.3",
    "share/man/man3/libssh2_knownhost_get.3",
    "share/man/man3/libssh2_knownhost_init.3",
    "share/man/man3/libssh2_knownhost_readfile.3",
    "share/man/man3/libssh2_knownhost_readline.3",
    "share/man/man3/libssh2_knownhost_writefile.3",
    "share/man/man3/libssh2_knownhost_writeline.3",
    "share/man/man3/libssh2_poll.3",
    "share/man/man3/libssh2_poll_channel_read.3",
    "share/man/man3/libssh2_publickey_add.3",
    "share/man/man3/libssh2_publickey_add_ex.3",
    "share/man/man3/libssh2_publickey_init.3",
    "share/man/man3/libssh2_publickey_list_fetch.3",
    "share/man/man3/libssh2_publickey_list_free.3",
    "share/man/man3/libssh2_publickey_remove.3",
    "share/man/man3/libssh2_publickey_remove_ex.3",
    "share/man/man3/libssh2_publickey_shutdown.3",
    "share/man/man3/libssh2_scp_recv.3",
    "share/man/man3/libssh2_scp_recv2.3",
    "share/man/man3/libssh2_scp_send.3",
    "share/man/man3/libssh2_scp_send64.3",
    "share/man/man3/libssh2_scp_send_ex.3",
    "share/man/man3/libssh2_session_abstract.3",
    "share/man/man3/libssh2_session_banner_get.3",
    "share/man/man3/libssh2_session_banner_set.3",
    "share/man/man3/libssh2_session_block_directions.3",
    "share/man/man3/libssh2_session_callback_set.3",
    "share/man/man3/libssh2_session_disconnect.3",
    "share/man/man3/libssh2_session_disconnect_ex.3",
    "share/man/man3/libssh2_session_flag.3",
    "share/man/man3/libssh2_session_free.3",
    "share/man/man3/libssh2_session_get_blocking.3",
    "share/man/man3/libssh2_session_get_timeout.3",
    "share/man/man3/libssh2_session_handshake.3",
    "share/man/man3/libssh2_session_hostkey.3",
    "share/man/man3/libssh2_session_init.3",
    "share/man/man3/libssh2_session_init_ex.3",
    "share/man/man3/libssh2_session_last_errno.3",
    "share/man/man3/libssh2_session_last_error.3",
    "share/man/man3/libssh2_session_method_pref.3",
    "share/man/man3/libssh2_session_methods.3",
    "share/man/man3/libssh2_session_set_blocking.3",
    "share/man/man3/libssh2_session_set_last_error.3",
    "share/man/man3/libssh2_session_set_timeout.3",
    "share/man/man3/libssh2_session_startup.3",
    "share/man/man3/libssh2_session_supported_algs.3",
    "share/man/man3/libssh2_sftp_close.3",
    "share/man/man3/libssh2_sftp_close_handle.3",
    "share/man/man3/libssh2_sftp_closedir.3",
    "share/man/man3/libssh2_sftp_fsetstat.3",
    "share/man/man3/libssh2_sftp_fstat.3",
    "share/man/man3/libssh2_sftp_fstat_ex.3",
    "share/man/man3/libssh2_sftp_fstatvfs.3",
    "share/man/man3/libssh2_sftp_fsync.3",
    "share/man/man3/libssh2_sftp_get_channel.3",
    "share/man/man3/libssh2_sftp_init.3",
    "share/man/man3/libssh2_sftp_last_error.3",
    "share/man/man3/libssh2_sftp_lstat.3",
    "share/man/man3/libssh2_sftp_mkdir.3",
    "share/man/man3/libssh2_sftp_mkdir_ex.3",
    "share/man/man3/libssh2_sftp_open.3",
    "share/man/man3/libssh2_sftp_open_ex.3",
    "share/man/man3/libssh2_sftp_opendir.3",
    "share/man/man3/libssh2_sftp_read.3",
    "share/man/man3/libssh2_sftp_readdir.3",
    "share/man/man3/libssh2_sftp_readdir_ex.3",
    "share/man/man3/libssh2_sftp_readlink.3",
    "share/man/man3/libssh2_sftp_realpath.3",
    "share/man/man3/libssh2_sftp_rename.3",
    "share/man/man3/libssh2_sftp_rename_ex.3",
    "share/man/man3/libssh2_sftp_rewind.3",
    "share/man/man3/libssh2_sftp_rmdir.3",
    "share/man/man3/libssh2_sftp_rmdir_ex.3",
    "share/man/man3/libssh2_sftp_seek.3",
    "share/man/man3/libssh2_sftp_seek64.3",
    "share/man/man3/libssh2_sftp_setstat.3",
    "share/man/man3/libssh2_sftp_shutdown.3",
    "share/man/man3/libssh2_sftp_stat.3",
    "share/man/man3/libssh2_sftp_stat_ex.3",
    "share/man/man3/libssh2_sftp_statvfs.3",
    "share/man/man3/libssh2_sftp_symlink.3",
    "share/man/man3/libssh2_sftp_symlink_ex.3",
    "share/man/man3/libssh2_sftp_tell.3",
    "share/man/man3/libssh2_sftp_tell64.3",
    "share/man/man3/libssh2_sftp_unlink.3",
    "share/man/man3/libssh2_sftp_unlink_ex.3",
    "share/man/man3/libssh2_sftp_write.3",
    "share/man/man3/libssh2_trace.3",
    "share/man/man3/libssh2_trace_sethandler.3",
    "share/man/man3/libssh2_userauth_authenticated.3",
    "share/man/man3/libssh2_userauth_hostbased_fromfile.3",
    "share/man/man3/libssh2_userauth_hostbased_fromfile_ex.3",
    "share/man/man3/libssh2_userauth_keyboard_interactive.3",
    "share/man/man3/libssh2_userauth_keyboard_interactive_ex.3",
    "share/man/man3/libssh2_userauth_list.3",
    "share/man/man3/libssh2_userauth_password.3",
    "share/man/man3/libssh2_userauth_password_ex.3",
    "share/man/man3/libssh2_userauth_publickey.3",
    "share/man/man3/libssh2_userauth_publickey_fromfile.3",
    "share/man/man3/libssh2_userauth_publickey_fromfile_ex.3",
    "share/man/man3/libssh2_userauth_publickey_frommemory.3",
    "share/man/man3/libssh2_version.3"
  ],
  "fn": "libssh2-1.9.0-ha12b0ac_1.conda",
  "legacy_bz2_md5": "6f0d94710fa3576ae321513963f1c364",
  "license": "BSD-3-Clause",
  "license_family": "BSD",
  "link": {
    "source": "/Users/mattia/anaconda3/pkgs/libssh2-1.9.0-ha12b0ac_1",
    "type": 1
  },
  "md5": "f4325c1eee706acc9959491b3d9746d3",
  "name": "libssh2",
  "package_tarball_full_path": "/Users/mattia/anaconda3/pkgs/libssh2-1.9.0-ha12b0ac_1.conda",
  "paths_data": {
    "paths": [
      {
        "_path": "include/libssh2.h",
        "path_type": "hardlink",
        "sha256": "2cf9a4940272dae6e9057248952db4d997555bad6aea0764b7800b5c43829598",
        "sha256_in_prefix": "2cf9a4940272dae6e9057248952db4d997555bad6aea0764b7800b5c43829598",
        "size_in_bytes": 53909
      },
      {
        "_path": "include/libssh2_publickey.h",
        "path_type": "hardlink",
        "sha256": "2d419bdfbc155cec62cc23d7cb87f3d9361c4f26ce3b3910c74cef715bd2e70b",
        "sha256_in_prefix": "2d419bdfbc155cec62cc23d7cb87f3d9361c4f26ce3b3910c74cef715bd2e70b",
        "size_in_bytes": 4804
      },
      {
        "_path": "include/libssh2_sftp.h",
        "path_type": "hardlink",
        "sha256": "b0b339b944527ddf46e3136e117c34f5438dccb5e175b9c90267d0831dc51ac3",
        "sha256_in_prefix": "b0b339b944527ddf46e3136e117c34f5438dccb5e175b9c90267d0831dc51ac3",
        "size_in_bytes": 15714
      },
      {
        "_path": "lib/cmake/libssh2/Libssh2Config-noconfig.cmake",
        "path_type": "hardlink",
        "sha256": "42e21d6ed8e875399f9e00d340a1d1e7fc7b243bff7463a750f54caaa191a7d9",
        "sha256_in_prefix": "42e21d6ed8e875399f9e00d340a1d1e7fc7b243bff7463a750f54caaa191a7d9",
        "size_in_bytes": 867
      },
      {
        "_path": "lib/cmake/libssh2/Libssh2Config.cmake",
        "path_type": "hardlink",
        "sha256": "7c47a3e1e8b73f8c0ca91a7fef21b7a2f88082df18b2cd2a298166baa4907218",
        "sha256_in_prefix": "7c47a3e1e8b73f8c0ca91a7fef21b7a2f88082df18b2cd2a298166baa4907218",
        "size_in_bytes": 3259
      },
      {
        "_path": "lib/cmake/libssh2/Libssh2ConfigVersion.cmake",
        "path_type": "hardlink",
        "sha256": "261f9b069f67c69ab2c6d98b9449c7c6181f93bcb8e9701d5a6d6b9d4a4e790c",
        "sha256_in_prefix": "261f9b069f67c69ab2c6d98b9449c7c6181f93bcb8e9701d5a6d6b9d4a4e790c",
        "size_in_bytes": 1607
      },
      {
        "_path": "lib/libssh2.1.0.1.dylib",
        "file_mode": "binary",
        "path_type": "hardlink",
        "prefix_placeholder": "/opt/concourse/worker/volumes/live/0dab1cd5-0738-459a-5fa5-0ce0fe25e32a/volume/libssh2_1583777300992/_h_env_placehold_placehold_placehold_placehold_placehold_placehold_placehold_placehold_placehold_placehold_placehold_placehold_placehold_placehold_placeho",
        "sha256": "f6cba6096e599fd87d939a48bd92d98e7740070ff3440497b7212f33975b5396",
        "sha256_in_prefix": "22f70f88a32cc2e4df75d78e7385223abf0e11d1975a541744cd6e7b5e3bc4fa",
        "size_in_bytes": 234840
      },
      {
        "_path": "lib/libssh2.1.dylib",
        "path_type": "softlink",
        "sha256": "f6cba6096e599fd87d939a48bd92d98e7740070ff3440497b7212f33975b5396",
        "size_in_bytes": 234840
      },
      {
        "_path": "lib/libssh2.a",
        "path_type": "hardlink",
        "sha256": "df43768bd82997dc8458aa0930268bbb4fa640ddc92cff3eb7eafbbf6cb9a30b",
        "sha256_in_prefix": "df43768bd82997dc8458aa0930268bbb4fa640ddc92cff3eb7eafbbf6cb9a30b",
        "size_in_bytes": 317664
      },
      {
        "_path": "lib/libssh2.dylib",
        "path_type": "softlink",
        "sha256": "f6cba6096e599fd87d939a48bd92d98e7740070ff3440497b7212f33975b5396",
        "size_in_bytes": 234840
      },
      {
        "_path": "lib/pkgconfig/libssh2.pc",
        "file_mode": "text",
        "path_type": "hardlink",
        "prefix_placeholder": "/opt/anaconda1anaconda2anaconda3",
        "sha256": "8427f3d48dedf884da8525d8c3b5cd94afd58fa6b15e2326f070a24cf9cd914e",
        "sha256_in_prefix": "69b24fce64fe4447bab52f0f1826062ea1fbe6ca44e3b8842f1ab036365f3029",
        "size_in_bytes": 485
      },
      {
        "_path": "share/doc/libssh2/AUTHORS",
        "path_type": "hardlink",
        "sha256": "12228e95c6b41c76d00b6ca8f2bf7bfb3372f3f32b6c62f34882530b9406f26d",
        "sha256_in_prefix": "12228e95c6b41c76d00b6ca8f2bf7bfb3372f3f32b6c62f34882530b9406f26d",
        "size_in_bytes": 1202
      },
      {
        "_path": "share/doc/libssh2/COPYING",
        "path_type": "hardlink",
        "sha256": "e15ed284a15e80115467d6d7f030f0d89d8fabbecd78fb6e0f861f0cfc128fd9",
        "sha256_in_prefix": "e15ed284a15e80115467d6d7f030f0d89d8fabbecd78fb6e0f861f0cfc128fd9",
        "size_in_bytes": 1886
      },
      {
        "_path": "share/doc/libssh2/HACKING",
        "path_type": "hardlink",
        "sha256": "5d2563866dc4fcc8a4ab352676e3d64b918b75e0a73ce7776b9eef7e8949d3b0",
        "sha256_in_prefix": "5d2563866dc4fcc8a4ab352676e3d64b918b75e0a73ce7776b9eef7e8949d3b0",
        "size_in_bytes": 267
      },
      {
        "_path": "share/doc/libssh2/NEWS",
        "path_type": "hardlink",
        "sha256": "6e8e1711d494724e1f1cb0235967f3493406236663471698eda376db5efdc445",
        "sha256_in_prefix": "6e8e1711d494724e1f1cb0235967f3493406236663471698eda376db5efdc445",
        "size_in_bytes": 195294
      },
      {
        "_path": "share/doc/libssh2/README",
        "path_type": "hardlink",
        "sha256": "428a810c75712693e66d2104ab64b976992a2670109959a8f771a609022ed25e",
        "sha256_in_prefix": "428a810c75712693e66d2104ab64b976992a2670109959a8f771a609022ed25e",
        "size_in_bytes": 476
      },
      {
        "_path": "share/doc/libssh2/RELEASE-NOTES",
        "path_type": "hardlink",
        "sha256": "2a1243475ad95aac243bd7eeba1a305931e611065de6c7b49fbf59019b79e529",
        "sha256_in_prefix": "2a1243475ad95aac243bd7eeba1a305931e611065de6c7b49fbf59019b79e529",
        "size_in_bytes": 2149
      },
      {
        "_path": "share/man/man3/libssh2_agent_connect.3",
        "path_type": "hardlink",
        "sha256": "5fe15d3e781382a8e935048dd266a89e9c3b63800d4714ceec6c78c512e49f20",
        "sha256_in_prefix": "5fe15d3e781382a8e935048dd266a89e9c3b63800d4714ceec6c78c512e49f20",
        "size_in_bytes": 597
      },
      {
        "_path": "share/man/man3/libssh2_agent_disconnect.3",
        "path_type": "hardlink",
        "sha256": "e2d1a3af99d888e310c6e22227e11b0a42f1d265451a9e13ac787fe0b8075426",
        "sha256_in_prefix": "e2d1a3af99d888e310c6e22227e11b0a42f1d265451a9e13ac787fe0b8075426",
        "size_in_bytes": 510
      },
      {
        "_path": "share/man/man3/libssh2_agent_free.3",
        "path_type": "hardlink",
        "sha256": "332b5fb986c013ba363bd18d5e39c01a047d79fb22acf673291f1e19b4d8292a",
        "sha256_in_prefix": "332b5fb986c013ba363bd18d5e39c01a047d79fb22acf673291f1e19b4d8292a",
        "size_in_bytes": 492
      },
      {
        "_path": "share/man/man3/libssh2_agent_get_identity.3",
        "path_type": "hardlink",
        "sha256": "acdccde633dda1740ba043fb3f2b3aed884923c74ff3e2ad2f01d5a6b87955f1",
        "sha256_in_prefix": "acdccde633dda1740ba043fb3f2b3aed884923c74ff3e2ad2f01d5a6b87955f1",
        "size_in_bytes": 1200
      },
      {
        "_path": "share/man/man3/libssh2_agent_get_identity_path.3",
        "path_type": "hardlink",
        "sha256": "148b43bc669d3300b3fbf09ae57050a15ce074c8730ecef78e97ee9309ea179f",
        "sha256_in_prefix": "148b43bc669d3300b3fbf09ae57050a15ce074c8730ecef78e97ee9309ea179f",
        "size_in_bytes": 591
      },
      {
        "_path": "share/man/man3/libssh2_agent_init.3",
        "path_type": "hardlink",
        "sha256": "09029ddc71d63085dd6ccf92062ce6e31f0d54a1eb40d06587713814ddb4ee5d",
        "sha256_in_prefix": "09029ddc71d63085dd6ccf92062ce6e31f0d54a1eb40d06587713814ddb4ee5d",
        "size_in_bytes": 878
      },
      {
        "_path": "share/man/man3/libssh2_agent_list_identities.3",
        "path_type": "hardlink",
        "sha256": "a498d332ea55486eb1c234468a8cf3c1886eb6b98bdd527a1b44fd06683e7ea2",
        "sha256_in_prefix": "a498d332ea55486eb1c234468a8cf3c1886eb6b98bdd527a1b44fd06683e7ea2",
        "size_in_bytes": 693
      },
      {
        "_path": "share/man/man3/libssh2_agent_set_identity_path.3",
        "path_type": "hardlink",
        "sha256": "b60fb7e972fc2b420ff0a7452ddbf12597dbc9cb075920da16ee9c0eef7f8425",
        "sha256_in_prefix": "b60fb7e972fc2b420ff0a7452ddbf12597dbc9cb075920da16ee9c0eef7f8425",
        "size_in_bytes": 577
      },
      {
        "_path": "share/man/man3/libssh2_agent_userauth.3",
        "path_type": "hardlink",
        "sha256": "d2119c63fa5bd1a05385bd176a1c8d2ee0139aebec92addd1601edc948f17855",
        "sha256_in_prefix": "d2119c63fa5bd1a05385bd176a1c8d2ee0139aebec92addd1601edc948f17855",
        "size_in_bytes": 916
      },
      {
        "_path": "share/man/man3/libssh2_banner_set.3",
        "path_type": "hardlink",
        "sha256": "1bd7a8bd59cb74d90cfed26c41701788afe7c0a667f686c5154cd0615d586422",
        "sha256_in_prefix": "1bd7a8bd59cb74d90cfed26c41701788afe7c0a667f686c5154cd0615d586422",
        "size_in_bytes": 1104
      },
      {
        "_path": "share/man/man3/libssh2_base64_decode.3",
        "path_type": "hardlink",
        "sha256": "c48f88f5a6405738bc146161bf442e02c02073e0b9957f5d4bc3bd425bee82e1",
        "sha256_in_prefix": "c48f88f5a6405738bc146161bf442e02c02073e0b9957f5d4bc3bd425bee82e1",
        "size_in_bytes": 965
      },
      {
        "_path": "share/man/man3/libssh2_channel_close.3",
        "path_type": "hardlink",
        "sha256": "e348d7548693066f863dde9a6c7dd21bf394aca51c1cae1c4999309eedfb4451",
        "sha256_in_prefix": "e348d7548693066f863dde9a6c7dd21bf394aca51c1cae1c4999309eedfb4451",
        "size_in_bytes": 1012
      },
      {
        "_path": "share/man/man3/libssh2_channel_direct_tcpip.3",
        "path_type": "hardlink",
        "sha256": "3a67560c5846880066344d5581840a26a8509854fcf20fda79f9b2156e58757d",
        "sha256_in_prefix": "3a67560c5846880066344d5581840a26a8509854fcf20fda79f9b2156e58757d",
        "size_in_bytes": 651
      },
      {
        "_path": "share/man/man3/libssh2_channel_direct_tcpip_ex.3",
        "path_type": "hardlink",
        "sha256": "5a7665c77afd8aa509c03d5059ece42adb912979e0fab608034e4554e3106439",
        "sha256_in_prefix": "5a7665c77afd8aa509c03d5059ece42adb912979e0fab608034e4554e3106439",
        "size_in_bytes": 1278
      },
      {
        "_path": "share/man/man3/libssh2_channel_eof.3",
        "path_type": "hardlink",
        "sha256": "7ad4590d1dfccf35bd2f7393e0d14b4247c3108ee2f48685b505c0dd9516e011",
        "sha256_in_prefix": "7ad4590d1dfccf35bd2f7393e0d14b4247c3108ee2f48685b505c0dd9516e011",
        "size_in_bytes": 507
      },
      {
        "_path": "share/man/man3/libssh2_channel_exec.3",
        "path_type": "hardlink",
        "sha256": "e7f79363e4fa61ce0c00f59e4e97cbc3101f55e2025b1156551aaf50c8522b87",
        "sha256_in_prefix": "e7f79363e4fa61ce0c00f59e4e97cbc3101f55e2025b1156551aaf50c8522b87",
        "size_in_bytes": 606
      },
      {
        "_path": "share/man/man3/libssh2_channel_flush.3",
        "path_type": "hardlink",
        "sha256": "fcaf2b8577ae6b8196313977d0686175a807fcccd3f3fce433028384da0f7bdd",
        "sha256_in_prefix": "fcaf2b8577ae6b8196313977d0686175a807fcccd3f3fce433028384da0f7bdd",
        "size_in_bytes": 553
      },
      {
        "_path": "share/man/man3/libssh2_channel_flush_ex.3",
        "path_type": "hardlink",
        "sha256": "a0a60e2c15e2fd19e8399ce45736470782090455856b6a97cab7b9e8cb56b160",
        "sha256_in_prefix": "a0a60e2c15e2fd19e8399ce45736470782090455856b6a97cab7b9e8cb56b160",
        "size_in_bytes": 1036
      },
      {
        "_path": "share/man/man3/libssh2_channel_flush_stderr.3",
        "path_type": "hardlink",
        "sha256": "4f590d465d647b416c583c2b16693a3364e84da2400dfe7f9ffe1928577ca3ae",
        "sha256_in_prefix": "4f590d465d647b416c583c2b16693a3364e84da2400dfe7f9ffe1928577ca3ae",
        "size_in_bytes": 574
      },
      {
        "_path": "share/man/man3/libssh2_channel_forward_accept.3",
        "path_type": "hardlink",
        "sha256": "4f0621fe2a6aef5fefd50197974beb6e6c89dc41841b1d6052f885a773557ed8",
        "sha256_in_prefix": "4f0621fe2a6aef5fefd50197974beb6e6c89dc41841b1d6052f885a773557ed8",
        "size_in_bytes": 737
      },
      {
        "_path": "share/man/man3/libssh2_channel_forward_cancel.3",
        "path_type": "hardlink",
        "sha256": "230ff1688acf2f4a7ac5d687ca46bd39458192a0662b3b8fa6edd8217c25117f",
        "sha256_in_prefix": "230ff1688acf2f4a7ac5d687ca46bd39458192a0662b3b8fa6edd8217c25117f",
        "size_in_bytes": 887
      },
      {
        "_path": "share/man/man3/libssh2_channel_forward_listen.3",
        "path_type": "hardlink",
        "sha256": "fac440afa8233b6d3982b349d56c177ba9fec09464f1c5a5bf40ce32d600197d",
        "sha256_in_prefix": "fac440afa8233b6d3982b349d56c177ba9fec09464f1c5a5bf40ce32d600197d",
        "size_in_bytes": 635
      },
      {
        "_path": "share/man/man3/libssh2_channel_forward_listen_ex.3",
        "path_type": "hardlink",
        "sha256": "49c5374f3b5c56213fe9a43ef4592cd51097cd1c9017fcb3be97c94847e8efcf",
        "sha256_in_prefix": "49c5374f3b5c56213fe9a43ef4592cd51097cd1c9017fcb3be97c94847e8efcf",
        "size_in_bytes": 1783
      },
      {
        "_path": "share/man/man3/libssh2_channel_free.3",
        "path_type": "hardlink",
        "sha256": "a7e649756ff4a20b0f5bb6bc9f4647ecaff885c8745e9c304cc697c2c677196b",
        "sha256_in_prefix": "a7e649756ff4a20b0f5bb6bc9f4647ecaff885c8745e9c304cc697c2c677196b",
        "size_in_bytes": 788
      },
      {
        "_path": "share/man/man3/libssh2_channel_get_exit_signal.3",
        "path_type": "hardlink",
        "sha256": "89557c3203331e1d21773b557659a0f21e1ecbcee90c372de3b6e159c7b78a7d",
        "sha256_in_prefix": "89557c3203331e1d21773b557659a0f21e1ecbcee90c372de3b6e159c7b78a7d",
        "size_in_bytes": 1464
      },
      {
        "_path": "share/man/man3/libssh2_channel_get_exit_status.3",
        "path_type": "hardlink",
        "sha256": "d374651f3f72f3f179c37b4a44b815a1bdd998f803a121fc8bc5544c397224c8",
        "sha256_in_prefix": "d374651f3f72f3f179c37b4a44b815a1bdd998f803a121fc8bc5544c397224c8",
        "size_in_bytes": 646
      },
      {
        "_path": "share/man/man3/libssh2_channel_handle_extended_data.3",
        "path_type": "hardlink",
        "sha256": "c8ba2c032cd2cd8fc5877845df624712457dcf1c092975f3c713fe75794fd42b",
        "sha256_in_prefix": "c8ba2c032cd2cd8fc5877845df624712457dcf1c092975f3c713fe75794fd42b",
        "size_in_bytes": 1226
      },
      {
        "_path": "share/man/man3/libssh2_channel_handle_extended_data2.3",
        "path_type": "hardlink",
        "sha256": "17269accf920a28af6bd14770f94067083e2dfa56df4e08663844d0cebb78052",
        "sha256_in_prefix": "17269accf920a28af6bd14770f94067083e2dfa56df4e08663844d0cebb78052",
        "size_in_bytes": 1195
      },
      {
        "_path": "share/man/man3/libssh2_channel_ignore_extended_data.3",
        "path_type": "hardlink",
        "sha256": "c00c30e1aa01c699c92c30c98e9ab8e543cb2fb23376b650627c56ecc3a1f275",
        "sha256_in_prefix": "c00c30e1aa01c699c92c30c98e9ab8e543cb2fb23376b650627c56ecc3a1f275",
        "size_in_bytes": 741
      },
      {
        "_path": "share/man/man3/libssh2_channel_open_ex.3",
        "path_type": "hardlink",
        "sha256": "a4153c3de3d2cb9a2faaa39eeb9b638c829db2cf4aa4a0e0a2cbd51098626e79",
        "sha256_in_prefix": "a4153c3de3d2cb9a2faaa39eeb9b638c829db2cf4aa4a0e0a2cbd51098626e79",
        "size_in_bytes": 1871
      },
      {
        "_path": "share/man/man3/libssh2_channel_open_session.3",
        "path_type": "hardlink",
        "sha256": "63ee8e3220149933ebf5219335cf5b9fb107e23808137f782e8846b191ecf629",
        "sha256_in_prefix": "63ee8e3220149933ebf5219335cf5b9fb107e23808137f782e8846b191ecf629",
        "size_in_bytes": 583
      },
      {
        "_path": "share/man/man3/libssh2_channel_process_startup.3",
        "path_type": "hardlink",
        "sha256": "1023352b8152e5a1a2ccf2bc899e9539fbecaa2dff69ebb68ada088da38fc6b9",
        "sha256_in_prefix": "1023352b8152e5a1a2ccf2bc899e9539fbecaa2dff69ebb68ada088da38fc6b9",
        "size_in_bytes": 1404
      },
      {
        "_path": "share/man/man3/libssh2_channel_read.3",
        "path_type": "hardlink",
        "sha256": "1ddb492b078cab328e718563f2fc5dc3fd737078ba272d078f94e554e2938080",
        "sha256_in_prefix": "1ddb492b078cab328e718563f2fc5dc3fd737078ba272d078f94e554e2938080",
        "size_in_bytes": 575
      },
      {
        "_path": "share/man/man3/libssh2_channel_read_ex.3",
        "path_type": "hardlink",
        "sha256": "931e1fad6ff1d629ed2b523c75e645a16344be8afebc0e2f50144ac8394146e2",
        "sha256_in_prefix": "931e1fad6ff1d629ed2b523c75e645a16344be8afebc0e2f50144ac8394146e2",
        "size_in_bytes": 1620
      },
      {
        "_path": "share/man/man3/libssh2_channel_read_stderr.3",
        "path_type": "hardlink",
        "sha256": "6b3a6db85f2fdb26a07b95d6046127f3d5c709e6ee4bd72d66b9109e10ca8e1b",
        "sha256_in_prefix": "6b3a6db85f2fdb26a07b95d6046127f3d5c709e6ee4bd72d66b9109e10ca8e1b",
        "size_in_bytes": 596
      },
      {
        "_path": "share/man/man3/libssh2_channel_receive_window_adjust.3",
        "path_type": "hardlink",
        "sha256": "01a3e1d79fce062cba8fefee6b8fe7ca81a1ad7a3c8cccf12801d7f80fd6265a",
        "sha256_in_prefix": "01a3e1d79fce062cba8fefee6b8fe7ca81a1ad7a3c8cccf12801d7f80fd6265a",
        "size_in_bytes": 1276
      },
      {
        "_path": "share/man/man3/libssh2_channel_receive_window_adjust2.3",
        "path_type": "hardlink",
        "sha256": "451f2632b8c786a16e87940f2fcb978e9d88fee27cb997c192c9e671b72b27eb",
        "sha256_in_prefix": "451f2632b8c786a16e87940f2fcb978e9d88fee27cb997c192c9e671b72b27eb",
        "size_in_bytes": 1104
      },
      {
        "_path": "share/man/man3/libssh2_channel_request_pty.3",
        "path_type": "hardlink",
        "sha256": "f7b4d6780a1b6ed5518e425751f55d9930a5bfa8e92dc0458ccdb06d7786ecbe",
        "sha256_in_prefix": "f7b4d6780a1b6ed5518e425751f55d9930a5bfa8e92dc0458ccdb06d7786ecbe",
        "size_in_bytes": 619
      },
      {
        "_path": "share/man/man3/libssh2_channel_request_pty_ex.3",
        "path_type": "hardlink",
        "sha256": "ab2af9c02a3d127ba99cf27f0496643eb30810edb38a94f7df488f41041ec105",
        "sha256_in_prefix": "ab2af9c02a3d127ba99cf27f0496643eb30810edb38a94f7df488f41041ec105",
        "size_in_bytes": 1551
      },
      {
        "_path": "share/man/man3/libssh2_channel_request_pty_size.3",
        "path_type": "hardlink",
        "sha256": "5ae6ade5d71da8ce3a31fd804c32600f54a3385b07cb8ed6ac90157a9a1ada26",
        "sha256_in_prefix": "5ae6ade5d71da8ce3a31fd804c32600f54a3385b07cb8ed6ac90157a9a1ada26",
        "size_in_bytes": 664
      },
      {
        "_path": "share/man/man3/libssh2_channel_request_pty_size_ex.3",
        "path_type": "hardlink",
        "sha256": "4b296b3a64b71c1842c0f12c70fe866734bc18f51e3907acfa3f04c4a997bda3",
        "sha256_in_prefix": "4b296b3a64b71c1842c0f12c70fe866734bc18f51e3907acfa3f04c4a997bda3",
        "size_in_bytes": 213
      },
      {
        "_path": "share/man/man3/libssh2_channel_send_eof.3",
        "path_type": "hardlink",
        "sha256": "a83be7ac2b428f6d41df423e38c52d01f86b9fcafde2010336c7a57323808b6c",
        "sha256_in_prefix": "a83be7ac2b428f6d41df423e38c52d01f86b9fcafde2010336c7a57323808b6c",
        "size_in_bytes": 753
      },
      {
        "_path": "share/man/man3/libssh2_channel_set_blocking.3",
        "path_type": "hardlink",
        "sha256": "767637f9629f9b7bbbe24c3f3e13be0a83174f1542a63fe7daba350beb369447",
        "sha256_in_prefix": "767637f9629f9b7bbbe24c3f3e13be0a83174f1542a63fe7daba350beb369447",
        "size_in_bytes": 725
      },
      {
        "_path": "share/man/man3/libssh2_channel_setenv.3",
        "path_type": "hardlink",
        "sha256": "fc8773714c44358cf215d80dfdfeea082cc84ae0f33575d17a7825ffb785b02d",
        "sha256_in_prefix": "fc8773714c44358cf215d80dfdfeea082cc84ae0f33575d17a7825ffb785b02d",
        "size_in_bytes": 601
      },
      {
        "_path": "share/man/man3/libssh2_channel_setenv_ex.3",
        "path_type": "hardlink",
        "sha256": "d4641d1a3054af1fb1aa4819de5ce002b434e56745118d843adc70d902505447",
        "sha256_in_prefix": "d4641d1a3054af1fb1aa4819de5ce002b434e56745118d843adc70d902505447",
        "size_in_bytes": 1405
      },
      {
        "_path": "share/man/man3/libssh2_channel_shell.3",
        "path_type": "hardlink",
        "sha256": "e2986078e39068dd61d6d3df0d9e54adb0a489e55ba8051ae6ce3ad5f3c2c191",
        "sha256_in_prefix": "e2986078e39068dd61d6d3df0d9e54adb0a489e55ba8051ae6ce3ad5f3c2c191",
        "size_in_bytes": 588
      },
      {
        "_path": "share/man/man3/libssh2_channel_subsystem.3",
        "path_type": "hardlink",
        "sha256": "16e48c8ad515baef23e1ea94895cf0d2c6d397c133adcbbd20300304b64cab4a",
        "sha256_in_prefix": "16e48c8ad515baef23e1ea94895cf0d2c6d397c133adcbbd20300304b64cab4a",
        "size_in_bytes": 623
      },
      {
        "_path": "share/man/man3/libssh2_channel_wait_closed.3",
        "path_type": "hardlink",
        "sha256": "8f7ad8093832b4b343b04eefe492e94a18be6f496e2074037f93b99683296663",
        "sha256_in_prefix": "8f7ad8093832b4b343b04eefe492e94a18be6f496e2074037f93b99683296663",
        "size_in_bytes": 754
      },
      {
        "_path": "share/man/man3/libssh2_channel_wait_eof.3",
        "path_type": "hardlink",
        "sha256": "a96b063c1d90129420db176063ea4cb66f1b913a2d2b5ada2f3364eeda2d6543",
        "sha256_in_prefix": "a96b063c1d90129420db176063ea4cb66f1b913a2d2b5ada2f3364eeda2d6543",
        "size_in_bytes": 585
      },
      {
        "_path": "share/man/man3/libssh2_channel_window_read.3",
        "path_type": "hardlink",
        "sha256": "085331a4fb18dd396b016629ad241a7bf03afe78b0a09fec701aa8be526fab2b",
        "sha256_in_prefix": "085331a4fb18dd396b016629ad241a7bf03afe78b0a09fec701aa8be526fab2b",
        "size_in_bytes": 611
      },
      {
        "_path": "share/man/man3/libssh2_channel_window_read_ex.3",
        "path_type": "hardlink",
        "sha256": "9faf5e32cc4e1fe69fa2e57dc31cbdf3f0e7bfcea339f3b7196f535bbe6be2e2",
        "sha256_in_prefix": "9faf5e32cc4e1fe69fa2e57dc31cbdf3f0e7bfcea339f3b7196f535bbe6be2e2",
        "size_in_bytes": 967
      },
      {
        "_path": "share/man/man3/libssh2_channel_window_write.3",
        "path_type": "hardlink",
        "sha256": "6daa6fd8d4f74957c709695bd74a741e7808e057cda1a0954e76f92f793d61c4",
        "sha256_in_prefix": "6daa6fd8d4f74957c709695bd74a741e7808e057cda1a0954e76f92f793d61c4",
        "size_in_bytes": 619
      },
      {
        "_path": "share/man/man3/libssh2_channel_window_write_ex.3",
        "path_type": "hardlink",
        "sha256": "052d12745f7a8a634ba0b3b36cf0a592c2425caf0679aaaca4776b664bd2d5c0",
        "sha256_in_prefix": "052d12745f7a8a634ba0b3b36cf0a592c2425caf0679aaaca4776b664bd2d5c0",
        "size_in_bytes": 810
      },
      {
        "_path": "share/man/man3/libssh2_channel_write.3",
        "path_type": "hardlink",
        "sha256": "30bfc0efb86bf513f721200a89c9139687d58483826924b9b401797de74b6387",
        "sha256_in_prefix": "30bfc0efb86bf513f721200a89c9139687d58483826924b9b401797de74b6387",
        "size_in_bytes": 587
      },
      {
        "_path": "share/man/man3/libssh2_channel_write_ex.3",
        "path_type": "hardlink",
        "sha256": "5ee6d5afe244e2839353ed8d7d6688bfde3f090bf951afec404bf486d6f78aac",
        "sha256_in_prefix": "5ee6d5afe244e2839353ed8d7d6688bfde3f090bf951afec404bf486d6f78aac",
        "size_in_bytes": 1826
      },
      {
        "_path": "share/man/man3/libssh2_channel_write_stderr.3",
        "path_type": "hardlink",
        "sha256": "e15a48affe5a5044a2b70bf6fc1e3c6a1dc61c10c4440db4828080fe55e5a0f2",
        "sha256_in_prefix": "e15a48affe5a5044a2b70bf6fc1e3c6a1dc61c10c4440db4828080fe55e5a0f2",
        "size_in_bytes": 608
      },
      {
        "_path": "share/man/man3/libssh2_channel_x11_req.3",
        "path_type": "hardlink",
        "sha256": "e10544721e6dae96d4542abe07b43767ae6fff49a5bc87381aaf72be7d45f51c",
        "sha256_in_prefix": "e10544721e6dae96d4542abe07b43767ae6fff49a5bc87381aaf72be7d45f51c",
        "size_in_bytes": 588
      },
      {
        "_path": "share/man/man3/libssh2_channel_x11_req_ex.3",
        "path_type": "hardlink",
        "sha256": "ece17b293092b2319ea237a2855a4b9b7c89c6954ecfedbd837d3d02ce4d7a13",
        "sha256_in_prefix": "ece17b293092b2319ea237a2855a4b9b7c89c6954ecfedbd837d3d02ce4d7a13",
        "size_in_bytes": 1488
      },
      {
        "_path": "share/man/man3/libssh2_exit.3",
        "path_type": "hardlink",
        "sha256": "104af206d55e98ffa72ae0c5a505523220c8d6e1de27a37a5139093476d5ede5",
        "sha256_in_prefix": "104af206d55e98ffa72ae0c5a505523220c8d6e1de27a37a5139093476d5ede5",
        "size_in_bytes": 335
      },
      {
        "_path": "share/man/man3/libssh2_free.3",
        "path_type": "hardlink",
        "sha256": "8abbc67b852f9fabe09eb84540b610304d896721a04a4bee1e9d0e8f8f08c999",
        "sha256_in_prefix": "8abbc67b852f9fabe09eb84540b610304d896721a04a4bee1e9d0e8f8f08c999",
        "size_in_bytes": 616
      },
      {
        "_path": "share/man/man3/libssh2_hostkey_hash.3",
        "path_type": "hardlink",
        "sha256": "82070c7634690b4bddc49f3c83b343c6f792c902e0e48247d055eaf3284f80e6",
        "sha256_in_prefix": "82070c7634690b4bddc49f3c83b343c6f792c902e0e48247d055eaf3284f80e6",
        "size_in_bytes": 988
      },
      {
        "_path": "share/man/man3/libssh2_init.3",
        "path_type": "hardlink",
        "sha256": "926b4044a52cf71dac8ac23cdf51d6e76bc92f5a3a72c65371549e18826c1cc7",
        "sha256_in_prefix": "926b4044a52cf71dac8ac23cdf51d6e76bc92f5a3a72c65371549e18826c1cc7",
        "size_in_bytes": 577
      },
      {
        "_path": "share/man/man3/libssh2_keepalive_config.3",
        "path_type": "hardlink",
        "sha256": "7ebbb7cdc900d6d6188afc537c05c60a115030609d96571ac447ac396991adc0",
        "sha256_in_prefix": "7ebbb7cdc900d6d6188afc537c05c60a115030609d96571ac447ac396991adc0",
        "size_in_bytes": 944
      },
      {
        "_path": "share/man/man3/libssh2_keepalive_send.3",
        "path_type": "hardlink",
        "sha256": "86ac214dd4c086239d59ac6582926f72544c788ad2fbf3ccc4e678b4109d32a4",
        "sha256_in_prefix": "86ac214dd4c086239d59ac6582926f72544c788ad2fbf3ccc4e678b4109d32a4",
        "size_in_bytes": 613
      },
      {
        "_path": "share/man/man3/libssh2_knownhost_add.3",
        "path_type": "hardlink",
        "sha256": "29a052f853cd3f19efc12612d4e3224271bdc91b10cf6b73e866d7018d25f07b",
        "sha256_in_prefix": "29a052f853cd3f19efc12612d4e3224271bdc91b10cf6b73e866d7018d25f07b",
        "size_in_bytes": 2511
      },
      {
        "_path": "share/man/man3/libssh2_knownhost_addc.3",
        "path_type": "hardlink",
        "sha256": "c5a2b8510dc1df43311f17073e7e720232f7a7e25d9ba7ae80efe2f26a133297",
        "sha256_in_prefix": "c5a2b8510dc1df43311f17073e7e720232f7a7e25d9ba7ae80efe2f26a133297",
        "size_in_bytes": 2674
      },
      {
        "_path": "share/man/man3/libssh2_knownhost_check.3",
        "path_type": "hardlink",
        "sha256": "2059d72130dc5b99c6faa8b399166a8495cf02b71313d6648778b11b0adab631",
        "sha256_in_prefix": "2059d72130dc5b99c6faa8b399166a8495cf02b71313d6648778b11b0adab631",
        "size_in_bytes": 2212
      },
      {
        "_path": "share/man/man3/libssh2_knownhost_checkp.3",
        "path_type": "hardlink",
        "sha256": "88cac561cc381008f64d4c879bbe626afd669090648441c134cae83a5ea082a9",
        "sha256_in_prefix": "88cac561cc381008f64d4c879bbe626afd669090648441c134cae83a5ea082a9",
        "size_in_bytes": 2485
      },
      {
        "_path": "share/man/man3/libssh2_knownhost_del.3",
        "path_type": "hardlink",
        "sha256": "34fbfa29546d2bf0edc380270937658f818d2600e4bdc658d5ce28c7d255e1ef",
        "sha256_in_prefix": "34fbfa29546d2bf0edc380270937658f818d2600e4bdc658d5ce28c7d255e1ef",
        "size_in_bytes": 829
      },
      {
        "_path": "share/man/man3/libssh2_knownhost_free.3",
        "path_type": "hardlink",
        "sha256": "3e319da43cb185d73dc215a75351f330de2194608a1b12b8e0b623c900d4d96e",
        "sha256_in_prefix": "3e319da43cb185d73dc215a75351f330de2194608a1b12b8e0b623c900d4d96e",
        "size_in_bytes": 496
      },
      {
        "_path": "share/man/man3/libssh2_knownhost_get.3",
        "path_type": "hardlink",
        "sha256": "fc04784b136786dafb210e018e758d5272c8d9d531c4fc5baac9f7b90f65bfd2",
        "sha256_in_prefix": "fc04784b136786dafb210e018e758d5272c8d9d531c4fc5baac9f7b90f65bfd2",
        "size_in_bytes": 1145
      },
      {
        "_path": "share/man/man3/libssh2_knownhost_init.3",
        "path_type": "hardlink",
        "sha256": "509721c49287e0232b3cfeb41a8d4b44a45a195222a5694baf9d728c77225abc",
        "sha256_in_prefix": "509721c49287e0232b3cfeb41a8d4b44a45a195222a5694baf9d728c77225abc",
        "size_in_bytes": 849
      },
      {
        "_path": "share/man/man3/libssh2_knownhost_readfile.3",
        "path_type": "hardlink",
        "sha256": "6d72d5be2d5dd56b125c1107632c58d5e8a692871182f3f883f5662f39d7dfff",
        "sha256_in_prefix": "6d72d5be2d5dd56b125c1107632c58d5e8a692871182f3f883f5662f39d7dfff",
        "size_in_bytes": 991
      },
      {
        "_path": "share/man/man3/libssh2_knownhost_readline.3",
        "path_type": "hardlink",
        "sha256": "e259eaedbe587c06a74ada7c1cf5bf28a168edfff2a60919985aa6c7a15e56f1",
        "sha256_in_prefix": "e259eaedbe587c06a74ada7c1cf5bf28a168edfff2a60919985aa6c7a15e56f1",
        "size_in_bytes": 979
      },
      {
        "_path": "share/man/man3/libssh2_knownhost_writefile.3",
        "path_type": "hardlink",
        "sha256": "5ef6daaf96128c0b756c9faf38b5fd60697fa93504a5cb9ce7139a3dc14f7254",
        "sha256_in_prefix": "5ef6daaf96128c0b756c9faf38b5fd60697fa93504a5cb9ce7139a3dc14f7254",
        "size_in_bytes": 877
      },
      {
        "_path": "share/man/man3/libssh2_knownhost_writeline.3",
        "path_type": "hardlink",
        "sha256": "32c23d5b4393297935c3fa6e03d57a3bc1d904e5e469cf775bb0516f9f885147",
        "sha256_in_prefix": "32c23d5b4393297935c3fa6e03d57a3bc1d904e5e469cf775bb0516f9f885147",
        "size_in_bytes": 1624
      },
      {
        "_path": "share/man/man3/libssh2_poll.3",
        "path_type": "hardlink",
        "sha256": "c4a377bc2be1c2789de7a57fa42baa51cfbb0bf4121153ee9cd5201507a8c2b0",
        "sha256_in_prefix": "c4a377bc2be1c2789de7a57fa42baa51cfbb0bf4121153ee9cd5201507a8c2b0",
        "size_in_bytes": 966
      },
      {
        "_path": "share/man/man3/libssh2_poll_channel_read.3",
        "path_type": "hardlink",
        "sha256": "5b3df35e57c3252fc63e819c69cc6405bdfd14c546b5cfc2a521563bcc9cb420",
        "sha256_in_prefix": "5b3df35e57c3252fc63e819c69cc6405bdfd14c546b5cfc2a521563bcc9cb420",
        "size_in_bytes": 651
      },
      {
        "_path": "share/man/man3/libssh2_publickey_add.3",
        "path_type": "hardlink",
        "sha256": "2e7c2772fb78b750b5aa94c7bd38c100e52493f6fb050762af924e26ab2605dd",
        "sha256_in_prefix": "2e7c2772fb78b750b5aa94c7bd38c100e52493f6fb050762af924e26ab2605dd",
        "size_in_bytes": 771
      },
      {
        "_path": "share/man/man3/libssh2_publickey_add_ex.3",
        "path_type": "hardlink",
        "sha256": "76e23274e8b4756b03359b0fb5bcd05becba4cca1212ae2c164a32c2f10ee50f",
        "sha256_in_prefix": "76e23274e8b4756b03359b0fb5bcd05becba4cca1212ae2c164a32c2f10ee50f",
        "size_in_bytes": 770
      },
      {
        "_path": "share/man/man3/libssh2_publickey_init.3",
        "path_type": "hardlink",
        "sha256": "5643aa57554f8daacbbff9e539c68cd1093172bd86d859109e6446ccc91a85d4",
        "sha256_in_prefix": "5643aa57554f8daacbbff9e539c68cd1093172bd86d859109e6446ccc91a85d4",
        "size_in_bytes": 187
      },
      {
        "_path": "share/man/man3/libssh2_publickey_list_fetch.3",
        "path_type": "hardlink",
        "sha256": "975705aa9fc187961fbab91751a5f41412a30d73d65bfe54862285061afc6c29",
        "sha256_in_prefix": "975705aa9fc187961fbab91751a5f41412a30d73d65bfe54862285061afc6c29",
        "size_in_bytes": 199
      },
      {
        "_path": "share/man/man3/libssh2_publickey_list_free.3",
        "path_type": "hardlink",
        "sha256": "5eba2104f91fb101014441df437c695b9b0b1e106b6268d623f886de6c237503",
        "sha256_in_prefix": "5eba2104f91fb101014441df437c695b9b0b1e106b6268d623f886de6c237503",
        "size_in_bytes": 197
      },
      {
        "_path": "share/man/man3/libssh2_publickey_remove.3",
        "path_type": "hardlink",
        "sha256": "69423e4d9d6b76388f6160eb473e82449700569d449911163609c8b1c629ed43",
        "sha256_in_prefix": "69423e4d9d6b76388f6160eb473e82449700569d449911163609c8b1c629ed43",
        "size_in_bytes": 694
      },
      {
        "_path": "share/man/man3/libssh2_publickey_remove_ex.3",
        "path_type": "hardlink",
        "sha256": "5c1632ac1685361577a4ddfd1f6257ecfc012225e1e8c2b126f93add0b5b6190",
        "sha256_in_prefix": "5c1632ac1685361577a4ddfd1f6257ecfc012225e1e8c2b126f93add0b5b6190",
        "size_in_bytes": 207
      },
      {
        "_path": "share/man/man3/libssh2_publickey_shutdown.3",
        "path_type": "hardlink",
        "sha256": "b152e6c493896da374b7b93468b23d7012e6232db06c331c158f9057b8053994",
        "sha256_in_prefix": "b152e6c493896da374b7b93468b23d7012e6232db06c331c158f9057b8053994",
        "size_in_bytes": 195
      },
      {
        "_path": "share/man/man3/libssh2_scp_recv.3",
        "path_type": "hardlink",
        "sha256": "e3af95d4147fb29a893ee80c8af430b7df1d77048d814c5005243c02fe221e18",
        "sha256_in_prefix": "e3af95d4147fb29a893ee80c8af430b7df1d77048d814c5005243c02fe221e18",
        "size_in_bytes": 1006
      },
      {
        "_path": "share/man/man3/libssh2_scp_recv2.3",
        "path_type": "hardlink",
        "sha256": "9fc689585ec209d13e5a7c5db6750e07b171103bd29d3522424f6d812473b95e",
        "sha256_in_prefix": "9fc689585ec209d13e5a7c5db6750e07b171103bd29d3522424f6d812473b95e",
        "size_in_bytes": 935
      },
      {
        "_path": "share/man/man3/libssh2_scp_send.3",
        "path_type": "hardlink",
        "sha256": "0b72a5932217f8e561840de2ce3e5077bb40e7631b1dfb6f439d4a2413f83cfd",
        "sha256_in_prefix": "0b72a5932217f8e561840de2ce3e5077bb40e7631b1dfb6f439d4a2413f83cfd",
        "size_in_bytes": 568
      },
      {
        "_path": "share/man/man3/libssh2_scp_send64.3",
        "path_type": "hardlink",
        "sha256": "3225083c74987af71d4a2947a7852ac810fd87ab12532492f286d7e7d7547456",
        "sha256_in_prefix": "3225083c74987af71d4a2947a7852ac810fd87ab12532492f286d7e7d7547456",
        "size_in_bytes": 1532
      },
      {
        "_path": "share/man/man3/libssh2_scp_send_ex.3",
        "path_type": "hardlink",
        "sha256": "07818e45119b15208123655f945e1927c0971d21ae6d410fd26944b86cd41745",
        "sha256_in_prefix": "07818e45119b15208123655f945e1927c0971d21ae6d410fd26944b86cd41745",
        "size_in_bytes": 1507
      },
      {
        "_path": "share/man/man3/libssh2_session_abstract.3",
        "path_type": "hardlink",
        "sha256": "56b29e317d2676d842f3854d8ffd89723a40992897b962d9ae07b56b2373a727",
        "sha256_in_prefix": "56b29e317d2676d842f3854d8ffd89723a40992897b962d9ae07b56b2373a727",
        "size_in_bytes": 733
      },
      {
        "_path": "share/man/man3/libssh2_session_banner_get.3",
        "path_type": "hardlink",
        "sha256": "78804fe78c70c1fcc408a493564c989f3d3da36bf56d14344df150bfc65570c5",
        "sha256_in_prefix": "78804fe78c70c1fcc408a493564c989f3d3da36bf56d14344df150bfc65570c5",
        "size_in_bytes": 799
      },
      {
        "_path": "share/man/man3/libssh2_session_banner_set.3",
        "path_type": "hardlink",
        "sha256": "c058557ca5d9633b560e05492212b52ee3f6477dae79f75c8ab4996828d88f09",
        "sha256_in_prefix": "c058557ca5d9633b560e05492212b52ee3f6477dae79f75c8ab4996828d88f09",
        "size_in_bytes": 1159
      },
      {
        "_path": "share/man/man3/libssh2_session_block_directions.3",
        "path_type": "hardlink",
        "sha256": "0006e5c9788d8b2c3976274b715ab712fedb6ee4d3caa09071b62b846b7d44ed",
        "sha256_in_prefix": "0006e5c9788d8b2c3976274b715ab712fedb6ee4d3caa09071b62b846b7d44ed",
        "size_in_bytes": 1183
      },
      {
        "_path": "share/man/man3/libssh2_session_callback_set.3",
        "path_type": "hardlink",
        "sha256": "995adc8905e002907c7c56284e345a88e46f327de850e5db38c5b663d388586b",
        "sha256_in_prefix": "995adc8905e002907c7c56284e345a88e46f327de850e5db38c5b663d388586b",
        "size_in_bytes": 1802
      },
      {
        "_path": "share/man/man3/libssh2_session_disconnect.3",
        "path_type": "hardlink",
        "sha256": "382845fee521c18828a9611c286919218fe51a4a3185f37f5c6e8a10a081db66",
        "sha256_in_prefix": "382845fee521c18828a9611c286919218fe51a4a3185f37f5c6e8a10a081db66",
        "size_in_bytes": 618
      },
      {
        "_path": "share/man/man3/libssh2_session_disconnect_ex.3",
        "path_type": "hardlink",
        "sha256": "5ed79115477f25aa8cf5998bf46eadc2383fd6e4eacee32622d961d4080ffa11",
        "sha256_in_prefix": "5ed79115477f25aa8cf5998bf46eadc2383fd6e4eacee32622d961d4080ffa11",
        "size_in_bytes": 1311
      },
      {
        "_path": "share/man/man3/libssh2_session_flag.3",
        "path_type": "hardlink",
        "sha256": "18317502888f1b7da8ef132500e009c8eed72cec5ddffbeda575a4c5093d8b74",
        "sha256_in_prefix": "18317502888f1b7da8ef132500e009c8eed72cec5ddffbeda575a4c5093d8b74",
        "size_in_bytes": 899
      },
      {
        "_path": "share/man/man3/libssh2_session_free.3",
        "path_type": "hardlink",
        "sha256": "7fd404b4fb4c5e955cb2b8fee9b72a89864351e63c553e56a80dfc2af8bf200b",
        "sha256_in_prefix": "7fd404b4fb4c5e955cb2b8fee9b72a89864351e63c553e56a80dfc2af8bf200b",
        "size_in_bytes": 664
      },
      {
        "_path": "share/man/man3/libssh2_session_get_blocking.3",
        "path_type": "hardlink",
        "sha256": "947a5fe43a518c13ba5049d820084ec6eede2bc3687923e67b28a75297431378",
        "sha256_in_prefix": "947a5fe43a518c13ba5049d820084ec6eede2bc3687923e67b28a75297431378",
        "size_in_bytes": 424
      },
      {
        "_path": "share/man/man3/libssh2_session_get_timeout.3",
        "path_type": "hardlink",
        "sha256": "4e808b2407358466171f2546c5220def1db4460a16d1f24c60a4a5186d6c0606",
        "sha256_in_prefix": "4e808b2407358466171f2546c5220def1db4460a16d1f24c60a4a5186d6c0606",
        "size_in_bytes": 650
      },
      {
        "_path": "share/man/man3/libssh2_session_handshake.3",
        "path_type": "hardlink",
        "sha256": "fcb9fc145dc6f3b29871dcbe9c3d27529790e1cd3e20643c8aacb3d3d628fb5b",
        "sha256_in_prefix": "fcb9fc145dc6f3b29871dcbe9c3d27529790e1cd3e20643c8aacb3d3d628fb5b",
        "size_in_bytes": 1309
      },
      {
        "_path": "share/man/man3/libssh2_session_hostkey.3",
        "path_type": "hardlink",
        "sha256": "0df40e6f599dacefcebf30b19331e4ce0abfad5bce75f5cffc8f4b7947bca5c6",
        "sha256_in_prefix": "0df40e6f599dacefcebf30b19331e4ce0abfad5bce75f5cffc8f4b7947bca5c6",
        "size_in_bytes": 697
      },
      {
        "_path": "share/man/man3/libssh2_session_init.3",
        "path_type": "hardlink",
        "sha256": "ce1a0e9ecc5a17d607437b01f4ee94d5a0d8c5dbc8a04f1e26d3b74daedae57a",
        "sha256_in_prefix": "ce1a0e9ecc5a17d607437b01f4ee94d5a0d8c5dbc8a04f1e26d3b74daedae57a",
        "size_in_bytes": 539
      },
      {
        "_path": "share/man/man3/libssh2_session_init_ex.3",
        "path_type": "hardlink",
        "sha256": "2c169699aedd0f9ca16fb71a90618738dcdfa5b2b70d857a39c60896ba62b86b",
        "sha256_in_prefix": "2c169699aedd0f9ca16fb71a90618738dcdfa5b2b70d857a39c60896ba62b86b",
        "size_in_bytes": 1749
      },
      {
        "_path": "share/man/man3/libssh2_session_last_errno.3",
        "path_type": "hardlink",
        "sha256": "fe92e9c94ecb5fa33bbf51f866bb62bc4a1e5c3ea153dbaf34aa6553cd477ebf",
        "sha256_in_prefix": "fe92e9c94ecb5fa33bbf51f866bb62bc4a1e5c3ea153dbaf34aa6553cd477ebf",
        "size_in_bytes": 553
      },
      {
        "_path": "share/man/man3/libssh2_session_last_error.3",
        "path_type": "hardlink",
        "sha256": "b14e30dc25d7daaf46ef119176af947efabfad29eff7f726635f2adb6260e97a",
        "sha256_in_prefix": "b14e30dc25d7daaf46ef119176af947efabfad29eff7f726635f2adb6260e97a",
        "size_in_bytes": 1088
      },
      {
        "_path": "share/man/man3/libssh2_session_method_pref.3",
        "path_type": "hardlink",
        "sha256": "6946c31e6d51b612852bed10d4ea869093a048f6d41131addbcb9c4dbbd767e5",
        "sha256_in_prefix": "6946c31e6d51b612852bed10d4ea869093a048f6d41131addbcb9c4dbbd767e5",
        "size_in_bytes": 1410
      },
      {
        "_path": "share/man/man3/libssh2_session_methods.3",
        "path_type": "hardlink",
        "sha256": "d1aaa1586bf15dad4e9f92828592b80d604280b30a3d0e21a71f5124fd1eb560",
        "sha256_in_prefix": "d1aaa1586bf15dad4e9f92828592b80d604280b30a3d0e21a71f5124fd1eb560",
        "size_in_bytes": 993
      },
      {
        "_path": "share/man/man3/libssh2_session_set_blocking.3",
        "path_type": "hardlink",
        "sha256": "33c01981b30ead73c614fcb6f7f224a39d6e849e6a9bccc9b8dd463719e1a39d",
        "sha256_in_prefix": "33c01981b30ead73c614fcb6f7f224a39d6e849e6a9bccc9b8dd463719e1a39d",
        "size_in_bytes": 1063
      },
      {
        "_path": "share/man/man3/libssh2_session_set_last_error.3",
        "path_type": "hardlink",
        "sha256": "147c7ad527163e73f3fe285d16c980de60bba09813535a7623a1e0a037cfd1cd",
        "sha256_in_prefix": "147c7ad527163e73f3fe285d16c980de60bba09813535a7623a1e0a037cfd1cd",
        "size_in_bytes": 985
      },
      {
        "_path": "share/man/man3/libssh2_session_set_timeout.3",
        "path_type": "hardlink",
        "sha256": "eae71fab2f62942d4e5b66d93a7f49347a08ad1afdfc9a81ce8fcc0d0a9b0068",
        "sha256_in_prefix": "eae71fab2f62942d4e5b66d93a7f49347a08ad1afdfc9a81ce8fcc0d0a9b0068",
        "size_in_bytes": 656
      },
      {
        "_path": "share/man/man3/libssh2_session_startup.3",
        "path_type": "hardlink",
        "sha256": "425118593ad0eaf0688c686d9b75f12b7cdb23d330445077907c6e2023cfef77",
        "sha256_in_prefix": "425118593ad0eaf0688c686d9b75f12b7cdb23d330445077907c6e2023cfef77",
        "size_in_bytes": 1383
      },
      {
        "_path": "share/man/man3/libssh2_session_supported_algs.3",
        "path_type": "hardlink",
        "sha256": "a2fe37982e0f274bcaeea77ad33ca8fa06ea9377aa4e8196c3a8a827e2906b74",
        "sha256_in_prefix": "a2fe37982e0f274bcaeea77ad33ca8fa06ea9377aa4e8196c3a8a827e2906b74",
        "size_in_bytes": 2733
      },
      {
        "_path": "share/man/man3/libssh2_sftp_close.3",
        "path_type": "hardlink",
        "sha256": "95f03395996cb7b2652cab241a7d91d0c57bec6d4d8f8097b2932acb56eb7bff",
        "sha256_in_prefix": "95f03395996cb7b2652cab241a7d91d0c57bec6d4d8f8097b2932acb56eb7bff",
        "size_in_bytes": 552
      },
      {
        "_path": "share/man/man3/libssh2_sftp_close_handle.3",
        "path_type": "hardlink",
        "sha256": "c813fa985be5105cc3cacaf23dc01f0442628c005e629115992a280597301368",
        "sha256_in_prefix": "c813fa985be5105cc3cacaf23dc01f0442628c005e629115992a280597301368",
        "size_in_bytes": 1394
      },
      {
        "_path": "share/man/man3/libssh2_sftp_closedir.3",
        "path_type": "hardlink",
        "sha256": "1230d8cc661c016991f32b757b11ee6ddd1ac551e5522c5e009f21ef624dfdc4",
        "sha256_in_prefix": "1230d8cc661c016991f32b757b11ee6ddd1ac551e5522c5e009f21ef624dfdc4",
        "size_in_bytes": 560
      },
      {
        "_path": "share/man/man3/libssh2_sftp_fsetstat.3",
        "path_type": "hardlink",
        "sha256": "a7ab72ebfca8d295a2b48f2c14d831568042ef6a0528e590faa99f5e2dd00675",
        "sha256_in_prefix": "a7ab72ebfca8d295a2b48f2c14d831568042ef6a0528e590faa99f5e2dd00675",
        "size_in_bytes": 573
      },
      {
        "_path": "share/man/man3/libssh2_sftp_fstat.3",
        "path_type": "hardlink",
        "sha256": "e354ea4b96d512a34db42be2eaaa2c7fb0bfed554e726aa79db7f45ade1f9dd1",
        "sha256_in_prefix": "e354ea4b96d512a34db42be2eaaa2c7fb0bfed554e726aa79db7f45ade1f9dd1",
        "size_in_bytes": 564
      },
      {
        "_path": "share/man/man3/libssh2_sftp_fstat_ex.3",
        "path_type": "hardlink",
        "sha256": "2446ac64b425dbaf115b37d29107b66fc0291c2ebd17898669c406a4fd57b78b",
        "sha256_in_prefix": "2446ac64b425dbaf115b37d29107b66fc0291c2ebd17898669c406a4fd57b78b",
        "size_in_bytes": 3566
      },
      {
        "_path": "share/man/man3/libssh2_sftp_fstatvfs.3",
        "path_type": "hardlink",
        "sha256": "a10a9bf1dda75b0e97966ed003d183728a8ded895eece58e458980bc742f7a39",
        "sha256_in_prefix": "a10a9bf1dda75b0e97966ed003d183728a8ded895eece58e458980bc742f7a39",
        "size_in_bytes": 32
      },
      {
        "_path": "share/man/man3/libssh2_sftp_fsync.3",
        "path_type": "hardlink",
        "sha256": "bee468765b5d4a09a3b473eba0cf436328f29806953bc1f998d8bc97d2a3049f",
        "sha256_in_prefix": "bee468765b5d4a09a3b473eba0cf436328f29806953bc1f998d8bc97d2a3049f",
        "size_in_bytes": 1328
      },
      {
        "_path": "share/man/man3/libssh2_sftp_get_channel.3",
        "path_type": "hardlink",
        "sha256": "90e527f9eb6b0d17760328f6e3842f74d1d173fe88a7c9ec2357ca471e9c0f41",
        "sha256_in_prefix": "90e527f9eb6b0d17760328f6e3842f74d1d173fe88a7c9ec2357ca471e9c0f41",
        "size_in_bytes": 553
      },
      {
        "_path": "share/man/man3/libssh2_sftp_init.3",
        "path_type": "hardlink",
        "sha256": "585d782936f71157d141474c94c897d7ea292580445550c25c8fd44f5e03052f",
        "sha256_in_prefix": "585d782936f71157d141474c94c897d7ea292580445550c25c8fd44f5e03052f",
        "size_in_bytes": 1357
      },
      {
        "_path": "share/man/man3/libssh2_sftp_last_error.3",
        "path_type": "hardlink",
        "sha256": "8e7b2fa2c5fe4792a39a5c1c24baf041c970e3021511b36e59979ed64a18b4c7",
        "sha256_in_prefix": "8e7b2fa2c5fe4792a39a5c1c24baf041c970e3021511b36e59979ed64a18b4c7",
        "size_in_bytes": 753
      },
      {
        "_path": "share/man/man3/libssh2_sftp_lstat.3",
        "path_type": "hardlink",
        "sha256": "a01353b26374401029f5094a24beca08988ea201ca2197fef2b14f30bb2658e5",
        "sha256_in_prefix": "a01353b26374401029f5094a24beca08988ea201ca2197fef2b14f30bb2658e5",
        "size_in_bytes": 568
      },
      {
        "_path": "share/man/man3/libssh2_sftp_mkdir.3",
        "path_type": "hardlink",
        "sha256": "14e04b070a6c351e2af6bd68f73a408e2982e9a358d5d2af5a46d8b422d27ce3",
        "sha256_in_prefix": "14e04b070a6c351e2af6bd68f73a408e2982e9a358d5d2af5a46d8b422d27ce3",
        "size_in_bytes": 552
      },
      {
        "_path": "share/man/man3/libssh2_sftp_mkdir_ex.3",
        "path_type": "hardlink",
        "sha256": "44c17758d2b0336f94c4004bdd2debf9e1632ba12c6db6df495c09a71a58e59f",
        "sha256_in_prefix": "44c17758d2b0336f94c4004bdd2debf9e1632ba12c6db6df495c09a71a58e59f",
        "size_in_bytes": 1377
      },
      {
        "_path": "share/man/man3/libssh2_sftp_open.3",
        "path_type": "hardlink",
        "sha256": "af9a8c90999412d3371218f59859ff91c6a83eabee75f1712adf94c5bceaf1d6",
        "sha256_in_prefix": "af9a8c90999412d3371218f59859ff91c6a83eabee75f1712adf94c5bceaf1d6",
        "size_in_bytes": 583
      },
      {
        "_path": "share/man/man3/libssh2_sftp_open_ex.3",
        "path_type": "hardlink",
        "sha256": "11661fbcec142d9afee722f5ce779bd32f6e0a2b2dc45558c3bd47292105231d",
        "sha256_in_prefix": "11661fbcec142d9afee722f5ce779bd32f6e0a2b2dc45558c3bd47292105231d",
        "size_in_bytes": 2372
      },
      {
        "_path": "share/man/man3/libssh2_sftp_opendir.3",
        "path_type": "hardlink",
        "sha256": "62639f60918835e08f3c00d708cb32af319b9a56d3c2cb33ad409b60b347b31d",
        "sha256_in_prefix": "62639f60918835e08f3c00d708cb32af319b9a56d3c2cb33ad409b60b347b31d",
        "size_in_bytes": 560
      },
      {
        "_path": "share/man/man3/libssh2_sftp_read.3",
        "path_type": "hardlink",
        "sha256": "1d0435c740470b8a6a427da4331b576833eead72f9d976001d8a1f55fcf24815",
        "sha256_in_prefix": "1d0435c740470b8a6a427da4331b576833eead72f9d976001d8a1f55fcf24815",
        "size_in_bytes": 1497
      },
      {
        "_path": "share/man/man3/libssh2_sftp_readdir.3",
        "path_type": "hardlink",
        "sha256": "0e98293f67ae019adf8c5e17fa9f31f3e34b082c55ccd2119ee424f30c337fc7",
        "sha256_in_prefix": "0e98293f67ae019adf8c5e17fa9f31f3e34b082c55ccd2119ee424f30c337fc7",
        "size_in_bytes": 616
      },
      {
        "_path": "share/man/man3/libssh2_sftp_readdir_ex.3",
        "path_type": "hardlink",
        "sha256": "7f9a2bda1d49d12040796015a842b592decfb076230ee9c8260c31e7b12dd2cc",
        "sha256_in_prefix": "7f9a2bda1d49d12040796015a842b592decfb076230ee9c8260c31e7b12dd2cc",
        "size_in_bytes": 2698
      },
      {
        "_path": "share/man/man3/libssh2_sftp_readlink.3",
        "path_type": "hardlink",
        "sha256": "1834815d254c351664cacf38c06a4b232f099787cc09a41ef719a1ff242e4064",
        "sha256_in_prefix": "1834815d254c351664cacf38c06a4b232f099787cc09a41ef719a1ff242e4064",
        "size_in_bytes": 661
      },
      {
        "_path": "share/man/man3/libssh2_sftp_realpath.3",
        "path_type": "hardlink",
        "sha256": "6b8e75bf89724998c414487d93f8c4899a3b1f4deba50806a798fdf9f9405bab",
        "sha256_in_prefix": "6b8e75bf89724998c414487d93f8c4899a3b1f4deba50806a798fdf9f9405bab",
        "size_in_bytes": 681
      },
      {
        "_path": "share/man/man3/libssh2_sftp_rename.3",
        "path_type": "hardlink",
        "sha256": "eb87a9b1c94f38913c0cb62a3a474fe8c8f3cb0a874c61ced396a2d8bb92e510",
        "sha256_in_prefix": "eb87a9b1c94f38913c0cb62a3a474fe8c8f3cb0a874c61ced396a2d8bb92e510",
        "size_in_bytes": 594
      },
      {
        "_path": "share/man/man3/libssh2_sftp_rename_ex.3",
        "path_type": "hardlink",
        "sha256": "12d2e70027755937df6de8b0836f75509f4fc5f1a5428fe5a92ae3eb23ff4b54",
        "sha256_in_prefix": "12d2e70027755937df6de8b0836f75509f4fc5f1a5428fe5a92ae3eb23ff4b54",
        "size_in_bytes": 2029
      },
      {
        "_path": "share/man/man3/libssh2_sftp_rewind.3",
        "path_type": "hardlink",
        "sha256": "4caf86de2f35e2925ee637a68f7cfc2e76dab54571ada06495a0574e549c6a7c",
        "sha256_in_prefix": "4caf86de2f35e2925ee637a68f7cfc2e76dab54571ada06495a0574e549c6a7c",
        "size_in_bytes": 525
      },
      {
        "_path": "share/man/man3/libssh2_sftp_rmdir.3",
        "path_type": "hardlink",
        "sha256": "86a1935b7bb291041eaa7c0788f417c6398b39fd208b6bb478329299ae72a49f",
        "sha256_in_prefix": "86a1935b7bb291041eaa7c0788f417c6398b39fd208b6bb478329299ae72a49f",
        "size_in_bytes": 574
      },
      {
        "_path": "share/man/man3/libssh2_sftp_rmdir_ex.3",
        "path_type": "hardlink",
        "sha256": "17029aa15ef3e1c862731a7ee52e8f730dc8951e62e1c0539b922dbcd66810b0",
        "sha256_in_prefix": "17029aa15ef3e1c862731a7ee52e8f730dc8951e62e1c0539b922dbcd66810b0",
        "size_in_bytes": 1201
      },
      {
        "_path": "share/man/man3/libssh2_sftp_seek.3",
        "path_type": "hardlink",
        "sha256": "546a134db735df610032fa982d3c8c1013ced779e21faeff261d71041bcde8bc",
        "sha256_in_prefix": "546a134db735df610032fa982d3c8c1013ced779e21faeff261d71041bcde8bc",
        "size_in_bytes": 922
      },
      {
        "_path": "share/man/man3/libssh2_sftp_seek64.3",
        "path_type": "hardlink",
        "sha256": "07df7a2c8c9d75b198fa60909baa31e1c883002337a4c6b7a1b3a9c6ceb3a594",
        "sha256_in_prefix": "07df7a2c8c9d75b198fa60909baa31e1c883002337a4c6b7a1b3a9c6ceb3a594",
        "size_in_bytes": 1054
      },
      {
        "_path": "share/man/man3/libssh2_sftp_setstat.3",
        "path_type": "hardlink",
        "sha256": "39c7f5d489ea5ceb51bd9c7de237464f5c510f3ce0983e57f7b69207ef957e01",
        "sha256_in_prefix": "39c7f5d489ea5ceb51bd9c7de237464f5c510f3ce0983e57f7b69207ef957e01",
        "size_in_bytes": 573
      },
      {
        "_path": "share/man/man3/libssh2_sftp_shutdown.3",
        "path_type": "hardlink",
        "sha256": "48bf057f1836924e3e5009890cb6e63ec9d11d0aa19abc258c75ee7c7bd097b9",
        "sha256_in_prefix": "48bf057f1836924e3e5009890cb6e63ec9d11d0aa19abc258c75ee7c7bd097b9",
        "size_in_bytes": 667
      },
      {
        "_path": "share/man/man3/libssh2_sftp_stat.3",
        "path_type": "hardlink",
        "sha256": "7fa4495645b580c216ca2279168b6b2f7c9c73a973dabf1997c02a0409d8c042",
        "sha256_in_prefix": "7fa4495645b580c216ca2279168b6b2f7c9c73a973dabf1997c02a0409d8c042",
        "size_in_bytes": 570
      },
      {
        "_path": "share/man/man3/libssh2_sftp_stat_ex.3",
        "path_type": "hardlink",
        "sha256": "fd19ff075f44a1713d765330d069fd63cffd8b2dbc09ce9170d926f25d5f70c3",
        "sha256_in_prefix": "fd19ff075f44a1713d765330d069fd63cffd8b2dbc09ce9170d926f25d5f70c3",
        "size_in_bytes": 2335
      },
      {
        "_path": "share/man/man3/libssh2_sftp_statvfs.3",
        "path_type": "hardlink",
        "sha256": "5762f9ff7d56f44164db57fd048daa60173794c4e7a58ab2fb255e29f0ca2bb8",
        "sha256_in_prefix": "5762f9ff7d56f44164db57fd048daa60173794c4e7a58ab2fb255e29f0ca2bb8",
        "size_in_bytes": 2727
      },
      {
        "_path": "share/man/man3/libssh2_sftp_symlink.3",
        "path_type": "hardlink",
        "sha256": "ae7ea167057c307552405124ad54ee488db7354e7caa974334e88f5b2104c88a",
        "sha256_in_prefix": "ae7ea167057c307552405124ad54ee488db7354e7caa974334e88f5b2104c88a",
        "size_in_bytes": 685
      },
      {
        "_path": "share/man/man3/libssh2_sftp_symlink_ex.3",
        "path_type": "hardlink",
        "sha256": "7e22a39bb97548428cddc8a9cf3bc7a1ff57cde878b337a7e177730bf5c51d01",
        "sha256_in_prefix": "7e22a39bb97548428cddc8a9cf3bc7a1ff57cde878b337a7e177730bf5c51d01",
        "size_in_bytes": 2804
      },
      {
        "_path": "share/man/man3/libssh2_sftp_tell.3",
        "path_type": "hardlink",
        "sha256": "ce22525601570f33d91469170d43470a8a9decf0b35ae82c2cea72fff1dc8d8f",
        "sha256_in_prefix": "ce22525601570f33d91469170d43470a8a9decf0b35ae82c2cea72fff1dc8d8f",
        "size_in_bytes": 654
      },
      {
        "_path": "share/man/man3/libssh2_sftp_tell64.3",
        "path_type": "hardlink",
        "sha256": "db5faf0fd28de4738e3062555c1d6981c2b272d7b89bd85e3e83d2a03237472f",
        "sha256_in_prefix": "db5faf0fd28de4738e3062555c1d6981c2b272d7b89bd85e3e83d2a03237472f",
        "size_in_bytes": 619
      },
      {
        "_path": "share/man/man3/libssh2_sftp_unlink.3",
        "path_type": "hardlink",
        "sha256": "d8c4c60c41e81149fe14a4a00cc114d3f7bb4799ceea4895c67d79363da3ae7c",
        "sha256_in_prefix": "d8c4c60c41e81149fe14a4a00cc114d3f7bb4799ceea4895c67d79363da3ae7c",
        "size_in_bytes": 553
      },
      {
        "_path": "share/man/man3/libssh2_sftp_unlink_ex.3",
        "path_type": "hardlink",
        "sha256": "64b0723444b716d2b809a3b481024523fc8c62ab45d3ec4274040abf824cf611",
        "sha256_in_prefix": "64b0723444b716d2b809a3b481024523fc8c62ab45d3ec4274040abf824cf611",
        "size_in_bytes": 1251
      },
      {
        "_path": "share/man/man3/libssh2_sftp_write.3",
        "path_type": "hardlink",
        "sha256": "a4706e9d6dabcde2aeccba27f7d7d5a3cef33dd21f4bf66bf5b181c3e8a3f9ef",
        "sha256_in_prefix": "a4706e9d6dabcde2aeccba27f7d7d5a3cef33dd21f4bf66bf5b181c3e8a3f9ef",
        "size_in_bytes": 3002
      },
      {
        "_path": "share/man/man3/libssh2_trace.3",
        "path_type": "hardlink",
        "sha256": "636417e1798bce85c2058cad56493919c608d426acaac409ec1a489bdef90fe2",
        "sha256_in_prefix": "636417e1798bce85c2058cad56493919c608d426acaac409ec1a489bdef90fe2",
        "size_in_bytes": 1021
      },
      {
        "_path": "share/man/man3/libssh2_trace_sethandler.3",
        "path_type": "hardlink",
        "sha256": "b37355eff49dacc9916818db61258f21665fb68993e57ca9040db056453bf8bd",
        "sha256_in_prefix": "b37355eff49dacc9916818db61258f21665fb68993e57ca9040db056453bf8bd",
        "size_in_bytes": 1323
      },
      {
        "_path": "share/man/man3/libssh2_userauth_authenticated.3",
        "path_type": "hardlink",
        "sha256": "81115e3ac2549eadafc5ab8c73462d1c5565593106c4d995a920f718e5dd451e",
        "sha256_in_prefix": "81115e3ac2549eadafc5ab8c73462d1c5565593106c4d995a920f718e5dd451e",
        "size_in_bytes": 533
      },
      {
        "_path": "share/man/man3/libssh2_userauth_hostbased_fromfile.3",
        "path_type": "hardlink",
        "sha256": "265670d504f8db399e9253af673264b92ae8cc3593912e9b2e6aee436d02fdfe",
        "sha256_in_prefix": "265670d504f8db399e9253af673264b92ae8cc3593912e9b2e6aee436d02fdfe",
        "size_in_bytes": 780
      },
      {
        "_path": "share/man/man3/libssh2_userauth_hostbased_fromfile_ex.3",
        "path_type": "hardlink",
        "sha256": "a71631a3eb07ac88ee21beeabaf6aaccb7e93378c98eed228fa27f1575b04a64",
        "sha256_in_prefix": "a71631a3eb07ac88ee21beeabaf6aaccb7e93378c98eed228fa27f1575b04a64",
        "size_in_bytes": 219
      },
      {
        "_path": "share/man/man3/libssh2_userauth_keyboard_interactive.3",
        "path_type": "hardlink",
        "sha256": "17d55c3ba83fc9b7a2fa1dbf0e0d1886deb87616298b6bf424b5ac7d63d0da39",
        "sha256_in_prefix": "17d55c3ba83fc9b7a2fa1dbf0e0d1886deb87616298b6bf424b5ac7d63d0da39",
        "size_in_bytes": 816
      },
      {
        "_path": "share/man/man3/libssh2_userauth_keyboard_interactive_ex.3",
        "path_type": "hardlink",
        "sha256": "d62646af0cf3257fa4a599a676f5237c1ab4d07d56b9b66745fe786f640e6afb",
        "sha256_in_prefix": "d62646af0cf3257fa4a599a676f5237c1ab4d07d56b9b66745fe786f640e6afb",
        "size_in_bytes": 2345
      },
      {
        "_path": "share/man/man3/libssh2_userauth_list.3",
        "path_type": "hardlink",
        "sha256": "af6928a269c96480a6ea3a3452af7029577f69485fee36ecdd9dde48b4956a5d",
        "sha256_in_prefix": "af6928a269c96480a6ea3a3452af7029577f69485fee36ecdd9dde48b4956a5d",
        "size_in_bytes": 1610
      },
      {
        "_path": "share/man/man3/libssh2_userauth_password.3",
        "path_type": "hardlink",
        "sha256": "4c8103bb95903b0b2ee6c2b1d0b3eac150ab31314ec023424ab564d29b1678a9",
        "sha256_in_prefix": "4c8103bb95903b0b2ee6c2b1d0b3eac150ab31314ec023424ab564d29b1678a9",
        "size_in_bytes": 689
      },
      {
        "_path": "share/man/man3/libssh2_userauth_password_ex.3",
        "path_type": "hardlink",
        "sha256": "afa13d3bb9bbdb3672e014aec922b2953556842b69fb602e8dc97f10d569f5d0",
        "sha256_in_prefix": "afa13d3bb9bbdb3672e014aec922b2953556842b69fb602e8dc97f10d569f5d0",
        "size_in_bytes": 2180
      },
      {
        "_path": "share/man/man3/libssh2_userauth_publickey.3",
        "path_type": "hardlink",
        "sha256": "874ece028410feb1bb33d481ab2789e6fadc9a9974cf4e0a72517b4c3fb81861",
        "sha256_in_prefix": "874ece028410feb1bb33d481ab2789e6fadc9a9974cf4e0a72517b4c3fb81861",
        "size_in_bytes": 928
      },
      {
        "_path": "share/man/man3/libssh2_userauth_publickey_fromfile.3",
        "path_type": "hardlink",
        "sha256": "6864fc6411955179866986cf95f75ff41a022a4b60ceb177cf503da45a67b88d",
        "sha256_in_prefix": "6864fc6411955179866986cf95f75ff41a022a4b60ceb177cf503da45a67b88d",
        "size_in_bytes": 902
      },
      {
        "_path": "share/man/man3/libssh2_userauth_publickey_fromfile_ex.3",
        "path_type": "hardlink",
        "sha256": "060d36d8a06538035e0d7c678f78db16d68ad6f930c958ef3c1bd46f96f9ed39",
        "sha256_in_prefix": "060d36d8a06538035e0d7c678f78db16d68ad6f930c958ef3c1bd46f96f9ed39",
        "size_in_bytes": 1873
      },
      {
        "_path": "share/man/man3/libssh2_userauth_publickey_frommemory.3",
        "path_type": "hardlink",
        "sha256": "5022660ab3c6c7f596b92e887debb3c580dc21f64be71b76c83c033c0fe36ef9",
        "sha256_in_prefix": "5022660ab3c6c7f596b92e887debb3c580dc21f64be71b76c83c033c0fe36ef9",
        "size_in_bytes": 2257
      },
      {
        "_path": "share/man/man3/libssh2_version.3",
        "path_type": "hardlink",
        "sha256": "d3feeb9f870be0dacc7616c44dffae9abddcd22eec9cc8c18a0526af723ffce8",
        "sha256_in_prefix": "d3feeb9f870be0dacc7616c44dffae9abddcd22eec9cc8c18a0526af723ffce8",
        "size_in_bytes": 1229
      }
    ],
    "paths_version": 1
  },
  "requested_spec": "None",
  "sha256": "a2b9a882c14281a2f69d16e753b015e5d3bb322a74592d7e2159d21e67723aab",
  "size": 256292,
  "subdir": "osx-64",
  "timestamp": 1583777417242,
  "track_features": "",
  "url": "https://repo.anaconda.com/pkgs/main/osx-64/libssh2-1.9.0-ha12b0ac_1.conda",
  "version": "1.9.0"
}